%YAML 1.1
%TAG !u! tag:unity3d.com,2011:
--- !u!114 &11400000
MonoBehaviour:
  m_ObjectHideFlags: 0
  m_PrefabParentObject: {fileID: 0}
  m_PrefabInternal: {fileID: 0}
  m_GameObject: {fileID: 0}
  m_Enabled: 1
  m_EditorHideFlags: 0
  m_Script: {fileID: 11500000, guid: e22b84916306c274e8b11f8dcfb6b48a, type: 3}
  m_Name: Room4
  m_EditorClassIdentifier: 
  Scene: Room4
  RoomName: The Room of the Wind
