%YAML 1.1
%TAG !u! tag:unity3d.com,2011:
--- !u!114 &11400000
MonoBehaviour:
  m_ObjectHideFlags: 0
  m_PrefabParentObject: {fileID: 0}
  m_PrefabInternal: {fileID: 0}
  m_GameObject: {fileID: 0}
  m_Enabled: 1
  m_EditorHideFlags: 0
  m_Script: {fileID: 11500000, guid: 3fb9a9a1a299b1646b9dc39c34a6bcc9, type: 3}
  m_Name: RoomDatabase
  m_EditorClassIdentifier: 
  Rooms:
  - {fileID: 11400000, guid: 9e3071527b0a0da4c81b149dc3cf1eb8, type: 2}
  - {fileID: 11400000, guid: 08f15d260a9742a4db62b0e39c223d1b, type: 2}
  - {fileID: 11400000, guid: 497499cd0764b0c42b9fed8c0a028e7f, type: 2}
  - {fileID: 11400000, guid: 59bad153d34994243be830bb6103e28b, type: 2}
  - {fileID: 11400000, guid: 7a1dd737faa1ae8428ed3e34082a2966, type: 2}
