%YAML 1.1
%TAG !u! tag:unity3d.com,2011:
--- !u!78 &1
TagManager:
  serializedVersion: 2
  tags:
  - Door
  - Object
  - Item
  - Trap
  - Light
  - Lift
  - Platform
  layers:
  - Default
  - TransparentFX
  - Ignore Raycast
  - 
  - Water
  - UI
  - 
  - 
  - 
  - 
  - Platform
  - 
  - 
  - 
  - 
  - RoomItem
  - RoomTrap
  - RoomObject
  - RoomEnemy
  - 
  - Player
  - 
  - 
  - 
  - 
  - 
  - 
  - 
  - 
  - 
  - 
  - 
  m_SortingLayers:
  - name: Background1
    uniqueID: 2010672191
    locked: 0
  - name: Background2
    uniqueID: 2339866589
    locked: 0
  - name: Background3
    uniqueID: 2558652409
    locked: 0
  - name: Default
    uniqueID: 0
    locked: 0
  - name: Platform
    uniqueID: 2343638799
    locked: 0
  - name: Trap
    uniqueID: 1622888731
    locked: 0
  - name: Decorator
    uniqueID: 3302719573
    locked: 0
  - name: Enemy
    uniqueID: 787093335
    locked: 0
  - name: Item
    uniqueID: 1523028455
    locked: 0
  - name: Object
    uniqueID: 3160207983
    locked: 0
  - name: Player
    uniqueID: 4036636943
    locked: 0
  - name: Foreground1
    uniqueID: 1184320513
    locked: 0
  - name: Foregeound2
    uniqueID: 964955689
    locked: 0
