%YAML 1.1
%TAG !u! tag:unity3d.com,2011:
--- !u!114 &11400000
MonoBehaviour:
  m_ObjectHideFlags: 0
  m_PrefabParentObject: {fileID: 0}
  m_PrefabInternal: {fileID: 0}
  m_GameObject: {fileID: 0}
  m_Enabled: 1
  m_EditorHideFlags: 0
  m_Script: {fileID: 11500000, guid: 2de8489024e7165449e9f7b062952d05, type: 3}
  m_Name: DoorToRoom4
  m_EditorClassIdentifier: 
  Type: 0
  Room: Room4
  Door: 
